{
  "$schema": "https://docs.renovatebot.com/renovate-schema.json",
  "extends": [
    "local>server-platform/server-platform-renovate-config:frontend",
    "packages:linters",
    "packages:jsTest",
    "packages:test",
    "monorepo:babel",
    "monorepo:react",
    ":semanticPrefixFixDepsChoreOthers"
  ],
  "schedule": null,
  "fetchReleaseNotes": true,
  "packageRules": [
    {
      "matchPackageNames": ["@atlassian/aui"],
      "allowedVersions": "<9.0.0"
    },

    {
      "matchPackageNames": ["react"],
      "allowedVersions": "<17.0.0"
    }
  ],

  "postUpgradeTasks": {
    "commands": ["npm install npm@^8 --no-save --no-audit --no-scripts && npx npm install --package-lock-only"],
    "executionMode": "branch"
  }
}
