{
  "$schema": "http://json-schema.org/draft-07/schema#",
  "type": "object",
  "properties": {
    "data": {
      "type": "string",
      "description": "For more information check the README.md of the @atlassian/soy-loader package"
    },

    "functions": {
      "type": "string",
      "description": "For more information check the README.md of the @atlassian/soy-loader package"
    },

    "expose": {
      "type": "boolean",
      "description": "For more information check the README.md of the @atlassian/soy-loader package",
      "default": true
    },

    "modularize": {
      "type": "boolean",
      "description": "For more information check the README.md of the @atlassian/soy-loader package",
      "default": false
    },

    "customModuleMap": {
      "type": "object",
      "additionalProperties": {
        "anyOf": [{ "type": "string" }, { "type": "boolean" }]
      }
    },

    "modulePathResolver": {
      "instanceof": "Function"
    }
  },

  "additionalProperties": false
}
